module github.com/zzice209/backend

go 1.15

require (
	github.com/gin-gonic/gin v1.6.3
	github.com/go-playground/validator/v10 v10.4.1
	github.com/golang/protobuf v1.4.3 // indirect
	github.com/google/uuid v1.2.0
	github.com/json-iterator/go v1.1.10 // indirect
	github.com/leodido/go-urn v1.2.1 // indirect
	github.com/mattn/go-sqlite3 v1.14.6 // indirect
	github.com/modern-go/concurrent v0.0.0-20180306012644-bacd9c7ef1dd // indirect
	github.com/modern-go/reflect2 v1.0.1 // indirect
	github.com/ugorji/go v1.2.3 // indirect
	golang.org/x/crypto v0.0.0-20201221181555-eec23a3978ad // indirect
	golang.org/x/sys v0.0.0-20210119212857-b64e53b001e4 // indirect
	google.golang.org/protobuf v1.25.0 // indirect
	gopkg.in/yaml.v2 v2.4.0 // indirect
	gorm.io/driver/postgres v1.0.7
	gorm.io/driver/sqlite v1.1.4
	gorm.io/gorm v1.20.12
)
